AD	AND	20	AN	Andorra	Andorre	Andorra la Vella	468	72000	EU	.ad	EUR	Euro	255	AD###	^(?:AD)*(\\d{3})$	ca,fr-AD,pt	3041565	ES,FR	
AE	ARE	255	AE	United Arab Emirates	Emirats Arabes Unis	Abu Dhabi	82880	4621000	AS	.ae	AED	Dirham	255			ar-AE,fa,en,hi,ur	290557	SA,OM	
AF	AFG	4	AF	Afghanistan	Afghanistan	Kabul	647500	32738000	AS	.af	AFN	Afghani	93			fa-AF,ps,uz-AF,tk	1149361	TM,CN,IR,TJ,PK,UZ	
AG	ATG	28	AC	Antigua and Barbuda	Antigua et Barbuda	St. John's	443	69000	NA	.ag	XCD	Dollar	1			en-AG	3576396		
AI	AIA	255	AV	Anguilla	Anguilla	The Valley	102	13254	NA	.ai	XCD	Dollar	1			en-AI	3573511		
AL	ALB	8	AL	Albania	Albanie	Tirana	28748	3619000	EU	.al	ALL	Lek	255			sq,el	783754	MK,GR,CS,ME,RS	
AM	ARM	51	AM	Armenia	Arménie	Yerevan	29800	2968000	AS	.am	AMD	Dram	255	######	^(\\d{6})$	hy	174982	GE,IR,AZ,TR	
AN	ANT	255	NT	Netherlands Antilles	Antilles Néerlandaises	Willemstad	960	136197	NA	.an	ANG	Guilder	255			nl-AN,en,es	3513447	GP	
AO	AGO	24	AO	Angola	Angola	Luanda	1246700	12531000	AF	.ao	AOA	Kwanza	244			pt-AO	3351879	CD,NA,ZM,CG	
AQ	ATA	10	AY	Antarctica	Antarctique		14000000	0	AN	.aq			0				6697173		
AR	ARG	32	AR	Argentina	Argentine	Buenos Aires	2766890	40677000	SA	.ar	ARS	Peso	54	@####@@@	^([A-Z]\\d{4}[A-Z]{3})$	es-AR,en,it,de,fr	3865483	CL,BO,UY,PY,BR	
AS	ASM	16	AQ	American Samoa	American Samoa	Pago Pago	199	57881	OC	.as	USD	Dollar	1			en-AS,sm,to	5880801		
AT	AUT	40	AU	Austria	Autriche	Vienna	83858	8205000	EU	.at	EUR	Euro	43	####	^(\\d{4})$	de-AT,hr,hu,sl	2782113	CH,DE,HU,SK,CZ,IT,SI,LI	
AU	AUS	36	AS	Australia	Australie	Canberra	7686850	20600000	OC	.au	AUD	Dollar	61	####	^(\\d{4})$	en-AU	2077456		
AW	ABW	255	AA	Aruba	Aruba	Oranjestad	193	71566	NA	.aw	AWG	Guilder	255			nl-AW,es,en	3577279		
AX	ALA	248		Aland Islands	Aland Islands	Mariehamn	0	26711	EU	.ax	EUR	Euro	255			sv-AX	661882		FI
AZ	AZE	31	AJ	Azerbaijan	Azerbaïdjan	Baku	86600	8177000	AS	.az	AZM	Manat	255	AZ ####	^(?:AZ)*(\\d{4})$	az,ru,hy	587116	GE,IR,AM,TR,RU	
BA	BIH	70	BK	Bosnia and Herzegovina	Bosnie-Herzégovine	Sarajevo	51129	4590000	EU	.ba	BAM	Marka	255	#####	^(\\d{5})$	bs,hr-BA,sr-BA	3277605	CS,HR,ME,RS	
BB	BRB	52	BB	Barbados	Barbades	Bridgetown	431	281000	NA	.bb	BBD	Dollar	1	BB#####	^(?:BB)*(\\d{5})$	en-BB	3374084		
BD	BGD	50	BG	Bangladesh	Bangladesh	Dhaka	144000	153546000	AS	.bd	BDT	Taka	255	####	^(\\d{4})$	bn-BD,en	1210997	MM,IN	
BE	BEL	56	BE	Belgium	Belgique	Brussels	30510	10403000	EU	.be	EUR	Euro	32	####	^(\\d{4})$	nl-BE,fr-BE,de-BE	2802361	DE,NL,LU,FR	
BF	BFA	255	UV	Burkina Faso	Burkina Faso	Ouagadougou	274200	14761000	AF	.bf	XOF	Franc	226			fr-BF	2361809	NE,BJ,GH,CI,TG,ML	
BG	BGR	100	BU	Bulgaria	Bulgarie	Sofia	110910	7262000	EU	.bg	BGN	Lev	255	####	^(\\d{4})$	bg,tr-BG	732800	MK,GR,RO,CS,TR,RS	
BH	BHR	48	BA	Bahrain	Bahreïn	Manama	665	718000	AS	.bh	BHD	Dinar	255	####|###	^(\\d{3}\\d?)$	ar-BH,en,fa,ur	290291		
BI	BDI	108	BY	Burundi	Burundi	Bujumbura	27830	8691000	AF	.bi	BIF	Franc	255			fr-BI,rn	433561	TZ,CD,RW	
BJ	BEN	204	BN	Benin	Bénin	Porto-Novo	112620	8294000	AF	.bj	XOF	Franc	229			fr-BJ	2395170	NE,TG,BF,NG	
BL	BLM	255	TB	Saint Barthélemy	Saint Barthélemy	Gustavia	21	8450	NA	.gp	EUR	Euro	255	### ###		fr	3578476		
BM	BMU	60	BD	Bermuda	Bermudes	Hamilton	53	65365	NA	.bm	BMD	Dollar	1	@@ ##	^([A-Z]{2}\\d{2})$	en-BM,pt	3573345		
BN	BRN	96	BX	Brunei	Brunei	Bandar Seri Begawan	5770	381000	AS	.bn	BND	Dollar	255	@@####	^([A-Z]{2}\\d{4})$	ms-BN,en-BN	1820814	MY	
BO	BOL	68	BL	Bolivia	Bolivie	La Paz	1098580	9247000	SA	.bo	BOB	Boliviano	255			es-BO,qu,ay	3923057	PE,CL,PY,BR,AR	
BR	BRA	76	BR	Brazil	Brésil	Brasília	8511965	191908000	SA	.br	BRL	Real	55	#####-###	^(\\d{8})$	pt-BRR,es,en,fr	3469034	SR,PE,BO,UY,GY,PY,GF,VE,CO,AR	
BS	BHS	44	BF	Bahamas	Bahamas	Nassau	13940	301790	NA	.bs	BSD	Dollar	1			en-BS	3572887		
BT	BTN	64	BT	Bhutan	Bhoutan	Thimphu	47000	2376000	AS	.bt	BTN	Ngultrum	255			dz	1252634	CN,IN	
BV	BVT	74	BV	Bouvet Island	Bouvet Island		0	0	AN	.bv	NOK	Krone	0				3371123		
BW	BWA	72	BC	Botswana	Botswana	Gaborone	600370	1842000	AF	.bw	BWP	Pula	255			en-BW,tn-BW	933860	ZW,ZA,NA	
BY	BLR	112	BO	Belarus	Biélorussie	Minsk	207600	9685000	EU	.by	BYR	Ruble	255	######	^(\\d{6})$	be,cru	630336	PL,LT,UA,RU,LV	
BZ	BLZ	84	BH	Belize	Belize	Belmopan	22966	301000	NA	.bz	BZD	Dollar	255			en-BZ,es	3582678	GT,MX	
CA	CAN	124	CA	Canada	Canada	Ottawa	9984670	33679000	NA	.ca	CAD	Dollar	1	@#@ #@#	^([a-zA-Z]\\d[a-zA-Z]\\d[a-zA-Z]\\d)$	en-CA,fr-CA	6251999	US	
CC	CCK	166	CK	Cocos Islands	Cocos Islands	West Island	14	628	AS	.cc	AUD	Dollar	61			ms-CC,en	1547376		
CD	COD	180	CG	Democratic Republic of the Congo	République Démocratique du Congo	Kinshasa	2345410	60085004	AF	.cd	CDF	Franc	243			fr-CD,ln,kg	203312	TZ,CF,SD,RW,ZM,BI,UG,CG,AO	
CF	CAF	140	CT	Central African Republic	Centrafricaine (République)	Bangui	622984	4434000	AF	.cf	XAF	Franc	236			fr-CF,ln,kg	239880	TD,SD,CD,CM,CG	
CG	COG	178	CF	Republic of the Congo	Congo	Brazzaville	342000	3039126	AF	.cg	XAF	Franc	242			fr-CG,kg,ln-CG	2260494	CF,GA,CD,CM,AO	
CH	CHE	255	SZ	Switzerland	Suisse	Berne	41290	7581000	EU	.ch	CHF	Franc	41	####	^(\\d{4})$	de-CH,fr-CH,it-CH,rm	2658434	DE,IT,LI,FR,AT	
CI	CIV	255	IV	Ivory Coast	Côte-d'Ivoire	Yamoussoukro	322460	18373000	AF	.ci	XOF	Franc	225			fr-CI	2287781	LR,GH,GN,BF,ML	
CK	COK	184	CW	Cook Islands	Cook Islands	Avarua	240	21388	OC	.ck	NZD	Dollar	255			en-CK,mi	1899402		
CL	CHL	152	CI	Chile	Chili	Santiago	756950	16432000	SA	.cl	CLP	Peso	56	#######	^(\\d{7})$	es-CL	3895114	PE,BO,AR	
CM	CMR	120	CM	Cameroon	Cameroun	Yaoundé	475440	18467000	AF	.cm	XAF	Franc	237			en-CM,fr-CM	2233387	TD,CF,GA,GQ,CG,NG	
CN	CHN	156	CH	China	Chine	Beijing	9596960	1330044000	AS	.cn	CNY	Yuan Renminbi	86	######	^(\\d{6})$	zh-CN,yue,wuu	1814991	LA,BT,TJ,KZ,MN,AF,NP,MM,KG,PK,KP,RU,VN,IN	
CO	COL	170	CO	Colombia	Colombie	Bogotá	1138910	45013000	SA	.co	COP	Peso	57			es-CO	3686110	EC,PE,PA,BR,VE	
CR	CRI	188	CS	Costa Rica	Costa Rica	San José	51100	4191000	NA	.cr	CRC	Colon	255	####	^(\\d{4})$	es-CR,en	3624060	PA,NI	
CU	CUB	192	CU	Cuba	Cuba	Havana	110860	11423000	NA	.cu	CUP	Peso	53	CP #####	^(?:CP)*(\\d{5})$	es-CU	3562981	US	
CV	CPV	132	CV	Cape Verde	Cap-Vert (Îles du)	Praia	4033	426000	AF	.cv	CVE	Escudo	238	####	^(\\d{4})$	pt-CV	3374766		
CX	CXR	162	KT	Christmas Island	Christmas Island	Flying Fish Cove	135	361	AS	.cx	AUD	Dollar	61	####	^(\\d{4})$	en,zh,ms-CC	2078138		
CY	CYP	196	CY	Cyprus	Chypre	Nicosia	9250	792000	EU	.cy	CYP	Pound	255	####	^(\\d{4})$	el-CY,tr-CY,en	146669		
CZ	CZE	203	EZ	Czech Republic	Tchèque (République)	Prague	78866	10220000	EU	.cz	CZK	Koruna	255	### ##	^(\\d{5})$	cs,sk	3077311	PL,DE,SK,AT	
DE	DEU	255	GM	Germany	Allemagne	Berlin	357021	82369000	EU	.de	EUR	Euro	49	#####	^(\\d{5})$	de	2921044	CH,PL,NL,DK,BE,CZ,LU,FR,AT	
DJ	DJI	255	DJ	Djibouti	Djibouti	Djibouti	23000	506000	AF	.dj	DJF	Franc	253			fr-DJ,ar,so-DJ,aa	223816	ER,ET,SO	
DK	DNK	208	DA	Denmark	Danemark	Copenhagen	43094	5484000	EU	.dk	DKK	Krone	45	####	^(\\d{4})$	da-DK,en,fo,de-DK	2623032	DE	
DM	DMA	212	DO	Dominica	Dominique	Roseau	754	72000	NA	.dm	XCD	Dollar	1			en-DM	3575830		
DO	DOM	214	DR	Dominican Republic	Dominicaine (République)	Santo Domingo	48730	9507000	NA	.do	DOP	Peso	1	#####	^(\\d{5})$	es-DO	3508796	HT	
DZ	DZA	12	AG	Algeria	Algérie	Algiers	2381740	33739000	AF	.dz	DZD	Dinar	213	#####	^(\\d{5})$	ar-DZ	2589581	NE,EH,LY,MR,TN,MA,ML	
EC	ECU	218	EC	Ecuador	Equateur	Quito	283560	13927000	SA	.ec	USD	Dollar	255	@####@	^([a-zA-Z]\\d{4}[a-zA-Z])$	es-EC	3658394	PE,CO	
EE	EST	233	EN	Estonia	Estonie	Tallinn	45226	1307000	EU	.ee	EEK	Kroon	255	#####	^(\\d{5})$	et,ru	453733	RU,LV	
EG	EGY	255	EG	Egypt	Egypte	Cairo	1001450	81713000	AF	.eg	EGP	Pound	20	#####	^(\\d{5})$	ar-EG,en,fr	357994	LY,SD,IL	
EH	ESH	255	WI	Western Sahara	Western Sahara	El-Aaiun	266000	273008	AF	.eh	MAD	Dirham	212			ar,mey	2461445	DZ,MR,MA	
ER	ERI	232	ER	Eritrea	Erythrée	Asmara	121320	5028000	AF	.er	ERN	Nakfa	255			aa-ER,ar,tig,kun,ti-ER	338010	ET,SD,DJ	
ES	ESP	255	SP	Spain	Espagne	Madrid	504782	40491000	EU	.es	EUR	Euro	34	#####	^(\\d{5})$	es-ES,ca,gl,eu	2510769	AD,PT,GI,FR,MA	
ET	ETH	231	ET	Ethiopia	Ethiopie	Addis Ababa	1127127	78254000	AF	.et	ETB	Birr	251	####	^(\\d{4})$	am,en-ET,om-ET,ti-ET,so-ET,sid,so-ET	337996	ER,KE,SD,SO,DJ	
FI	FIN	246	FI	Finland	Finlande	Helsinki	337030	5244000	EU	.fi	EUR	Euro	255	FI-#####	^(?:FI)*(\\d{5})$	fi-FI,sv-FI,smn	660013	NO,RU,SE	
FJ	FJI	242	FJ	Fiji	Fidji (Iles)	Suva	18270	931000	OC	.fj	FJD	Dollar	255			en-FJ,fj	2205218		
FK	FLK	238	FK	Falkland Islands	Falkland (Iles)	Stanley	12173	2638	SA	.fk	FKP	Pound	255			en-FK	3474414		
FM	FSM	255	FM	Micronesia	Micronésie	Palikir	702	108105	OC	.fm	USD	Dollar	255	#####	^(\\d{5})$	en-FM,chk,pon,yap,kos,uli,woe,nkr,kpg	2081918		
FO	FRO	234	FO	Faroe Islands	Féroé (Iles)	Tórshavn	1399	48228	EU	.fo	DKK	Krone	255	FO-###	^(?:FO)*(\\d{3})$	fo,da-FO	2622320		
FR	FRA	250	FR	France	France	Paris	547030	64094000	EU	.fr	EUR	Euro	33	#####	^(\\d{5})$	fr-FR,frp,br,co,ca,eu	3017382	CH,DE,BE,LU,IT,AD,MC,ES	
GA	GAB	255	GB	Gabon	Gabon	Libreville	267667	1484000	AF	.ga	XAF	Franc	241			fr-GA	2400553	CM,GQ,CG	
GB	GBR	255	UK	United Kingdom	Royaume-Uni	London	244820	60943000	EU	.uk	GBP	Pound	44	@# #@@|@## #@@|@@# #@@|@@## #@@|@#@ #@@|@@#@ #@@|GIR0AA	^(([A-Z]\\d{2}[A-Z]{2})|([A-Z]\\d{3}[A-Z]{2})|([A-Z]{2}\\d{2}[A-Z]{2})|([A-Z]{2}\\d{3}[A-Z]{2})|([A-Z]\\d[A-Z]\\d[A-Z]{2})|([A-Z]{2}\\d[A-Z]\\d[A-Z]{2})|(GIR0AA))$	en-GB,cy-GB,gd	2635167	IE	
GD	GRD	255	GJ	Grenada	Grenade	St. George's	344	90000	NA	.gd	XCD	Dollar	1			en-GD	3580239		
GE	GEO	255	GG	Georgia	Géorgie	Tbilisi	69700	4630000	AS	.ge	GEL	Lari	255	####	^(\\d{4})$	ka,ru,hy,az	614540	AM,AZ,TR,RU	
GF	GUF	254	FG	French Guiana	Guinée-Française	Cayenne	91000	195506	SA	.gf	EUR	Euro	255	#####	^((97)|(98)3\\d{2})$	fr-GF	3381670	SR,BR	
GG	GGY	255	GK	Guernsey	Guernsey	St Peter Port	78	65228	EU	.gg	GPD	Pound	44	@# #@@|@## #@@|@@# #@@|@@## #@@|@#@ #@@|@@#@ #@@|GIR0AA	^(([A-Z]\\d{2}[A-Z]{2})|([A-Z]\\d{3}[A-Z]{2})|([A-Z]{2}\\d{2}[A-Z]{2})|([A-Z]{2}\\d{3}[A-Z]{2})|([A-Z]\\d[A-Z]\\d[A-Z]{2})|([A-Z]{2}\\d[A-Z]\\d[A-Z]{2})|(GIR0AA))$	en,fr	3042362		
GH	GHA	255	GH	Ghana	Ghana	Accra	239460	23382000	AF	.gh	GHC	Cedi	233			en-GH,ak,ee,tw	2300660	CI,TG,BF	
GI	GIB	255	GI	Gibraltar	Gibraltar	Gibraltar	7	27884	EU	.gi	GIP	Pound	255			en-GI,es,it,pt	2411586	ES	
GL	GRL	255	GL	Greenland	Groenland	Nuuk	2166086	56375	NA	.gl	DKK	Krone	255	####	^(\\d{4})$	kl,da-GL,en	3425505		
GM	GMB	255	GA	Gambia	Gambie	Banjul	11300	1593256	AF	.gm	GMD	Dalasi	220			en-GM,mnk,wof,wo,ff	2413451	SN	
GN	GIN	255	GV	Guinea	Guinée	Conakry	245857	10211000	AF	.gn	GNF	Franc	224			fr-GN	2420477	LR,SN,SL,CI,GW,ML	
GP	GLP	255	GP	Guadeloupe	Guadeloupe	Basse-Terre	1780	443000	NA	.gp	EUR	Euro	255	#####	^((97)|(98)\\d{3})$	fr-GP	3579143	AN	
GQ	GNQ	226	EK	Equatorial Guinea	Guinée-Equatoriale	Malabo	28051	562000	AF	.gq	XAF	Franc	240			es-GQ,fr	2309096	GA,CM	
GR	GRC	255	GR	Greece	Grèce	Athens	131940	10722000	EU	.gr	EUR	Euro	30	### ##	^(\\d{5})$	el-GR,en,fr	390903	AL,MK,TR,BG	
GS	SGS	239	SX	South Georgia and the South Sandwich Islands	South Georgia and the South Sandwich Islands	Grytviken	3903	100	AN	.gs	GBP	Pound	0			en	3474415		
GT	GTM	255	GT	Guatemala	Guatemala	Guatemala City	108890	13002000	NA	.gt	GTQ	Quetzal	255	#####	^(\\d{5})$	es-GT	3595528	MX,HN,BZ,SV	
GU	GUM	255	GQ	Guam	Guam	Hagåtña	549	168564	OC	.gu	USD	Dollar	1	969##	^(969\\d{2})$	en-GU,ch-GU	4043988		
GW	GNB	255	PU	Guinea-Bissau	Guinée-Bissau	Bissau	36120	1503000	AF	.gw	XOF	Franc	245	####	^(\\d{4})$	pt-GW,pov	2372248	SN,GN	
GY	GUY	255	GY	Guyana	Guyane	Georgetown	214970	770000	SA	.gy	GYD	Dollar	255			en-GY	3378535	SR,BR,VE	
HK	HKG	255	HK	Hong Kong	Hong Kong	Hong Kong	1092	6898686	AS	.hk	HKD	Dollar	255			zh-HK,yue,zh,en	1819730		
HM	HMD	255	HM	Heard Island and McDonald Islands	Heard Island and McDonald Islands		412	0	AN	.hm	AUD	Dollar	0				1547314		
HN	HND	255	HO	Honduras	Honduras	Tegucigalpa	112090	7639000	NA	.hn	HNL	Lempira	255	@@####	^([A-Z]{2}\\d{4})$	es-HN	3608932	GT,NI,SV	
HR	HRV	191	HR	Croatia	Croatie	Zagreb	56542	4491000	EU	.hr	HRK	Kuna	255	HR-#####	^(?:HR)*(\\d{5})$	hr-HR,sr	3202326	HU,SI,CS,BA,ME,RS	
HT	HTI	255	HA	Haiti	Haïti	Port-au-Prince	27750	8924000	NA	.ht	HTG	Gourde	255	HT####	^(?:HT)*(\\d{4})$	ht,fr-HT	3723988	DO	
HU	HUN	255	HU	Hungary	Hongrie	Budapest	93030	9930000	EU	.hu	HUF	Forint	36	####	^(\\d{4})$	hu-HU	719819	SK,SI,RO,UA,CS,HR,AT,RS	
ID	IDN	255	ID	Indonesia	Indonésie	Jakarta	1919440	237512000	AS	.id	IDR	Rupiah	62	#####	^(\\d{5})$	id,en,nl,jv	1643084	PG,TL,MY	
IE	IRL	255	EI	Ireland	Irlande	Dublin	70280	4156000	EU	.ie	EUR	Euro	255			en-IE,ga-IE	2963597	GB	
IL	ISR	255	IS	Israel	Israël	Jerusalem	20770	6500000	AS	.il	ILS	Shekel	255	#####	^(\\d{5})$	he,ar-IL,en-IL,	294640	SY,JO,LB,EG,PS	
IM	IMN	255	IM	Isle of Man	Isle of Man	Douglas, Isle of Man	572	75049	EU	.im	GPD	Pound	44	@# #@@|@## #@@|@@# #@@|@@## #@@|@#@ #@@|@@#@ #@@|GIR0AA	^(([A-Z]\\d{2}[A-Z]{2})|([A-Z]\\d{3}[A-Z]{2})|([A-Z]{2}\\d{2}[A-Z]{2})|([A-Z]{2}\\d{3}[A-Z]{2})|([A-Z]\\d[A-Z]\\d[A-Z]{2})|([A-Z]{2}\\d[A-Z]\\d[A-Z]{2})|(GIR0AA))$	en,gv	3042225		
IN	IND	255	IN	India	Inde	New Delhi	3287590	1147995000	AS	.in	INR	Rupee	91	######	^(\\d{6})$	en-IN,hi,bn,te,mr,ta,ur,gu,ml,kn,or,pa,as,ks,sd,sa,ur-IN	1269750	CN,NP,MM,BT,PK,BD	
IO	IOT	86	IO	British Indian Ocean Territory	British Indian Ocean Territory	Diego Garcia	60	0	AS	.io	USD	Dollar	246			en-IO	1282588		
IQ	IRQ	255	IZ	Iraq	Iraq	Baghdad	437072	28221000	AS	.iq	IQD	Dinar	255	#####	^(\\d{5})$	ar-IQ,ku,hy	99237	SY,SA,IR,JO,TR,KW	
IR	IRN	255	IR	Iran	Iran	Tehran	1648000	65875000	AS	.ir	IRR	Rial	98	##########	^(\\d{10})$	fa-IR,ku	130758	TM,AF,IQ,AM,PK,AZ,TR	
IS	ISL	255	IC	Iceland	Islande	Reykjavík	103000	304000	EU	.is	ISK	Krona	255	###	^(\\d{3})$	is,en,de,da,sv,no	2629691		
IT	ITA	255	IT	Italy	Italie	Rome	301230	58145000	EU	.it	EUR	Euro	39	####	^(\\d{5})$	it-IT,de-IT,fr-IT,sl	3175395	CH,VA,SI,SM,FR,AT	
JE	JEY	255	JE	Jersey	Jersey	Saint Helier	116	90812	EU	.je	GPD	Pound	44	@# #@@|@## #@@|@@# #@@|@@## #@@|@#@ #@@|@@#@ #@@|GIR0AA	^(([A-Z]\\d{2}[A-Z]{2})|([A-Z]\\d{3}[A-Z]{2})|([A-Z]{2}\\d{2}[A-Z]{2})|([A-Z]{2}\\d{3}[A-Z]{2})|([A-Z]\\d[A-Z]\\d[A-Z]{2})|([A-Z]{2}\\d[A-Z]\\d[A-Z]{2})|(GIR0AA))$	en,pt	3042142		
JM	JAM	255	JM	Jamaica	Jamaïque	Kingston	10991	2801000	NA	.jm	JMD	Dollar	1			en-JM	3489940		
JO	JOR	255	JO	Jordan	Jordanie	Amman	92300	6198000	AS	.jo	JOD	Dinar	255	#####	^(\\d{5})$	ar-JO,en	248816	SY,SA,IQ,IL,PS	
JP	JPN	255	JA	Japan	Japon	Tokyo	377835	127288000	AS	.jp	JPY	Yen	81	###-####	^(\\d{7})$	ja	1861060		
KE	KEN	255	KE	Kenya	Kenya	Nairobi	582650	37953000	AF	.ke	KES	Shilling	254	#####	^(\\d{5})$	en-KE,sw-KE	192950	ET,TZ,SD,SO,UG	
KG	KGZ	255	KG	Kyrgyzstan	Kirghizistan	Bishkek	198500	5356000	AS	.kg	KGS	Som	255	######	^(\\d{6})$	ky,uz,ru	1527747	CN,TJ,UZ,KZ	
KH	KHM	116	CB	Cambodia	Cambodge	Phnom Penh	181040	14241000	AS	.kh	KHR	Riels	255	#####	^(\\d{5})$	km,fr,en	1831722	LA,TH,VN	
KI	KIR	255	KR	Kiribati	Kiribati	South Tarawa	811	110000	OC	.ki	AUD	Dollar	255			en-KI,gil	4030945		
KM	COM	174	CN	Comoros	Comores	Moroni	2170	731000	AF	.km	KMF	Franc	255			ar,fr-KM	921929		
KN	KNA	255	SC	Saint Kitts and Nevis	Saint Christophe et Nieves	Basseterre	261	39000	NA	.kn	XCD	Dollar	1			en-KN	3575174		
KP	PRK	255	KN	North Korea	Corée du Nord	Pyongyang	120540	22912177	AS	.kp	KPW	Won	255	###-###	^(\\d{6})$	ko-KP	1873107	CN,KR,RU	
KR	KOR	255	KS	South Korea	Corée du Sud	Seoul	98480	48422644	AS	.kr	KRW	Won	82	SEOUL ###-###	^(?:SEOUL)*(\\d{6})$	ko-KR,en	1835841	KP	
KW	KWT	255	KU	Kuwait	Koweït	Kuwait City	17820	2596000	AS	.kw	KWD	Dinar	255	#####	^(\\d{5})$	ar-KW,en	285570	SA,IQ	
KY	CYM	136	CJ	Cayman Islands	Caïmans (Îles)	George Town	262	44270	NA	.ky	KYD	Dollar	1			en-KY	3580718		
KZ	KAZ	255	KZ	Kazakhstan	Kazakhstan	Astana	2717300	15340000	AS	.kz	KZT	Tenge	7	######	^(\\d{6})$	kk,ru	1522867	TM,CN,KG,UZ,RU	
LA	LAO	255	LA	Laos	Laos	Vientiane	236800	6677000	AS	.la	LAK	Kip	255	#####	^(\\d{5})$	lo,fr,en	1655842	CN,MM,KH,TH,VN	
LB	LBN	255	LE	Lebanon	Liban	Beirut	10400	3971000	AS	.lb	LBP	Pound	255	#### ####|####	^(\\d{4}(\\d{4})?)$	ar-LB,fr-LB,en,hy	272103	SY,IL	
LC	LCA	255	ST	Saint Lucia	Sainte-Lucie	Castries	616	172000	NA	.lc	XCD	Dollar	1			en-LC	3576468		
LI	LIE	255	LS	Liechtenstein	Liechtenstein	Vaduz	160	34000	EU	.li	CHF	Franc	255	####	^(\\d{4})$	de-LI	3042058	CH,AT	
LK	LKA	144	CE	Sri Lanka	Sri Lanka	Colombo	65610	21128000	AS	.lk	LKR	Rupee	94	#####	^(\\d{5})$	si,ta,en	1227603		
LR	LBR	255	LI	Liberia	Liberia	Monrovia	111370	3334000	AF	.lr	LRD	Dollar	231	####	^(\\d{4})$	en-LR	2275384	SL,CI,GN	
LS	LSO	255	LT	Lesotho	Lesotho	Maseru	30355	2128000	AF	.ls	LSL	Loti	255	###	^(\\d{3})$	en-LS,st,zu,xh	932692	ZA	
LT	LTU	255	LH	Lithuania	Lituanie	Vilnius	65200	3565000	EU	.lt	LTL	Litas	255	LT-#####	^(?:LT)*(\\d{5})$	lt,ru,pl	597427	PL,BY,RU,LV	
LU	LUX	255	LU	Luxembourg	Luxembourg	Luxembourg	2586	486000	EU	.lu	EUR	Euro	255	####	^(\\d{4})$	lb,de-LU,fr-LU	2960313	DE,BE,FR	
LV	LVA	255	LG	Latvia	Lettonie	Riga	64589	2245000	EU	.lv	LVL	Lat	255	LV-####	^(?:LV)*(\\d{4})$	lv,ru,lt	458258	LT,EE,BY,RU	
LY	LBY	255	LY	Libya	Libye	Tripolis	1759540	6173000	AF	.ly	LYD	Dinar	218			ar-LY,it,en	2215636	TD,NE,DZ,SD,TN,EG	
MA	MAR	255	MO	Morocco	Maroc	Rabat	446550	34272000	AF	.ma	MAD	Dirham	212	#####	^(\\d{5})$	ar-MA,fr	2542007	DZ,EH,ES	
MC	MCO	255	MN	Monaco	Monaco	Monaco	2	32000	EU	.mc	EUR	Euro	255	#####	^(\\d{5})$	fr-MC,en,it	2993457	FR	
MD	MDA	255	MD	Moldova	Moldavie	Chi?in?u	33843	4324000	EU	.md	MDL	Leu	255	MD-####	^(?:MD)*(\\d{4})$	mo,ro,ru,gag,tr	617790	RO,UA	
ME	MNE	255	MJ	Montenegro	Serbie-Monténégro	Podgorica	14026	678000	EU	.cs	EUR	Euro	255	#####	^(\\d{5})$	sr,hu,bs,sq,hr,rom	3194884	AL,HR,BA,RS	
MF	MAF	255	RN	Saint Martin	Saint Martin	Marigot	53	33100	NA	.gp	EUR	Euro	255	### ###		fr	3578421		
MG	MDG	255	MA	Madagascar	Madagascar	Antananarivo	587040	20042000	AF	.mg	MGA	Ariary	255	###	^(\\d{3})$	fr-MG,mg	1062947		
MH	MHL	255	RM	Marshall Islands	Marshall (Iles)	Uliga	181	11628	OC	.mh	USD	Dollar	255			mh,en-MH	2080185		
MK	MKD	255	MK	Macedonia	Macédoine	Skopje	25333	2061000	EU	.mk	MKD	Denar	255	####	^(\\d{4})$	mk,sq,tr,rmm,sr	718075	AL,GR,CS,BG,RS	
ML	MLI	255	ML	Mali	Mali	Bamako	1240000	12324000	AF	.ml	XOF	Franc	223			fr-ML,bm	2453866	SN,NE,DZ,CI,GN,MR,BF	
MM	MMR	104	BM	Myanmar	Myanmar (Birmanie)	Yangon	678500	47758000	AS	.mm	MMK	Kyat	95	#####	^(\\d{5})$	my	1327865	CN,LA,TH,BD,IN	
MN	MNG	255	MG	Mongolia	Mongolie	Ulan Bator	1565000	2996000	AS	.mn	MNT	Tugrik	255	######	^(\\d{6})$	mn,ru	2029969	CN,RU	
MO	MAC	255	MC	Macao	Macao	Macao	254	449198	AS	.mo	MOP	Pataca	255			zh,zh-MO	1821275		
MP	MNP	255	CQ	Northern Mariana Islands	Northern Mariana Islands	Saipan	477	80362	OC	.mp	USD	Dollar	1			fil,tl,zh,ch-MP,en-MP	4041467		
MQ	MTQ	255	MB	Martinique	Martinique	Fort-de-France	1100	432900	NA	.mq	EUR	Euro	255	#####	^(\\d{5})$	fr-MQ	3570311		
MR	MRT	255	MR	Mauritania	Mauritanie	Nouakchott	1030700	3364000	AF	.mr	MRO	Ouguiya	222			ar-MR,fuc,snk,fr,mey,wo	2378080	SN,DZ,EH,ML	
MS	MSR	255	MH	Montserrat	Montserrat	Plymouth	102	9341	NA	.ms	XCD	Dollar	1			en-MS	3578097		
MT	MLT	255	MT	Malta	Malte et Gozo	Valletta	316	403000	EU	.mt	MTL	Lira	255	@@@ ###|@@@ ##	^([A-Z]{3}\\d{2}\\d?)$	mt,en-MT	2562770		
MU	MUS	255	MP	Mauritius	Maurice (Ile)	Port Louis	2040	1260000	AF	.mu	MUR	Rupee	230			en-MU,bho,fr	934292		
MV	MDV	255	MV	Maldives	Maldives (Les)	Malé	300	379000	AS	.mv	MVR	Rufiyaa	255	#####	^(\\d{5})$	dv,en	1282028		
MW	MWI	255	MI	Malawi	Malawi	Lilongwe	118480	13931000	AF	.mw	MWK	Kwacha	255			ny,yao,tum,swk	927384	TZ,MZ,ZM	
MX	MEX	255	MX	Mexico	Mexique	Mexico City	1972550	109955000	NA	.mx	MXN	Peso	52	#####	^(\\d{5})$	es-MX	3996063	GT,US,BZ	
MY	MYS	255	MY	Malaysia	Malaisie	Kuala Lumpur	329750	25259000	AS	.my	MYR	Ringgit	60	#####	^(\\d{5})$	ms-MY,en,zh,ta,te,ml,pa,th	1733045	BN,TH,ID	
MZ	MOZ	255	MZ	Mozambique	Mozambique	Maputo	801590	21284000	AF	.mz	MZN	Meticail	255	####	^(\\d{4})$	pt-MZ,vmw	1036973	ZW,TZ,SZ,ZA,ZM,MW	
NA	NAM	255	WA	Namibia	Namibie	Windhoek	825418	2063000	AF	.na	NAD	Dollar	255			en-NA,af,de,hz,naq	3355338	ZA,BW,ZM,AO	
NC	NCL	255	NC	New Caledonia	New Caledonia	Nouméa	19060	216494	OC	.nc	XPF	Franc	255	#####	^(\\d{5})$	fr-NC	2139685		
NE	NER	255	NG	Niger	Niger	Niamey	1267000	13272000	AF	.ne	XOF	Franc	227	####	^(\\d{4})$	fr-NE,ha,kr,dje	2440476	TD,BJ,DZ,LY,BF,NG,ML	
NF	NFK	255	NF	Norfolk Island	Norfolk Island	Kingston	35	1828	OC	.nf	AUD	Dollar	255			en-NF	2155115		
NG	NGA	255	NI	Nigeria	Nigeria	Abuja	923768	138283000	AF	.ng	NGN	Naira	234	######	^(\\d{6})$	en-NG,ha,yo,ig,ff	2328926	TD,NE,BJ,CM	
NI	NIC	255	NU	Nicaragua	Nicaragua	Managua	129494	5780000	NA	.ni	NIO	Cordoba	255	###-###-#	^(\\d{7})$	es-NI,en	3617476	CR,HN	
NL	NLD	255	NL	Netherlands	Pays-Bas	Amsterdam	41526	16645000	EU	.nl	EUR	Euro	31	#### @@	^(\\d{4}[A-Z]{2})$	nl-NL,fy-NL	2750405	DE,BE	
NO	NOR	255	NO	Norway	Norvège	Oslo	324220	4644000	EU	.no	NOK	Krone	47	####	^(\\d{4})$	no,nb,nn	3144096	FI,RU,SE	
NP	NPL	255	NP	Nepal	Népal	Kathmandu	140800	29519000	AS	.np	NPR	Rupee	255	#####	^(\\d{5})$	ne,en	1282988	CN,IN	
NR	NRU	255	NR	Nauru	Nauru	Yaren	21	13000	OC	.nr	AUD	Dollar	255			na,en-NR	2110425		
NU	NIU	255	NE	Niue	Niue	Alofi	260	2166	OC	.nu	NZD	Dollar	255			niu,en-NU	4036232		
NZ	NZL	255	NZ	New Zealand	Nouvelle-Zélande	Wellington	268680	4154000	OC	.nz	NZD	Dollar	64	####	^(\\d{4})$	en-NZ,mi	2186224		
OM	OMN	255	MU	Oman	Oman	Muscat	212460	3309000	AS	.om	OMR	Rial	255	###	^(\\d{3})$	ar-OM,en,bal,ur	286963	SA,YE,AE	
PA	PAN	255	PM	Panama	Panamá	Panama City	78200	3292000	NA	.pa	PAB	Balboa	255			es-PA,en	3703430	CR,CO	
PE	PER	255	PE	Peru	Pérou	Lima	1285220	29041000	SA	.pe	PEN	Sol	51			es-PE,qu,ay	3932488	EC,CL,BO,BR,CO	
PF	PYF	255	FP	French Polynesia	Polynésie Française	Papeete	4167	270485	OC	.pf	XPF	Franc	255	#####	^((97)|(98)7\\d{2})$	fr-PF,ty	4020092		
PG	PNG	255	PP	Papua New Guinea	Papouasie-Nouvelle-Guinée	Port Moresby	462840	5921000	OC	.pg	PGK	Kina	255	###	^(\\d{3})$	en-PG,ho,meu,tpi	2088628	ID	
PH	PHL	255	RP	Philippines	Philippines	Manila	300000	92681000	AS	.ph	PHP	Peso	63	####	^(\\d{4})$	tl,en-PH,fil	1694008		
PK	PAK	255	PK	Pakistan	Pakistan	Islamabad	803940	167762000	AS	.pk	PKR	Rupee	92	#####	^(\\d{5})$	ur-PK,en-PK,pa,sd,ps,brh	1168579	CN,AF,IR,IN	
PL	POL	255	PL	Poland	Pologne	Warsaw	312685	38500000	EU	.pl	PLN	Zloty	48	##-###	^(\\d{5})$	pl	798544	DE,LT,SK,CZ,BY,UA,RU	
PM	SPM	255	SB	Saint Pierre and Miquelon	Saint Pierre et Miquelon	Saint-Pierre	242	7012	NA	.pm	EUR	Euro	255			fr-PM	3424932		
PN	PCN	255	PC	Pitcairn	Pitcairn (Iles)	Adamstown	47	46	OC	.pn	NZD	Dollar	0			en-PN	4030699		
PR	PRI	255	RQ	Puerto Rico	Porto Rico	San Juan	9104	3916632	NA	.pr	USD	Dollar	1	#####-####	^(\\d{9})$	en-PR,es-PR	4566966		
PS	PSE	255	WE	Palestinian Territory	Palestine	East Jerusalem	5970	3800000	AS	.ps	ILS	Shekel	255			ar-PS	6254930	JO,IL	
PT	PRT	255	PO	Portugal	Portugal	Lisbon	92391	10676000	EU	.pt	EUR	Euro	255	####-###	^(\\d{7})$	pt-PT,mwl	2264397	ES	
PW	PLW	255	PS	Palau	Palau	Koror	458	20303	OC	.pw	USD	Dollar	255	96940	^(96940)$	pau,sov,en-PW,tox,ja,fil,zh	1559582		
PY	PRY	255	PA	Paraguay	Paraguay	Asunción	406750	6831000	SA	.py	PYG	Guarani	255	####	^(\\d{4})$	es-PY,gn	3437598	BO,BR,AR	
QA	QAT	255	QA	Qatar	Qatar	Doha	11437	928000	AS	.qa	QAR	Rial	255			ar-QA,es	289688	SA	
RE	REU	255	RE	Reunion	Reunion	Saint-Denis	2517	776948	AF	.re	EUR	Euro	255	#####	^((97)|(98)(4|7|8)\\d{2})$	fr-RE	935317		
RO	ROU	255	RO	Romania	Roumanie	Bucharest	237500	22246000	EU	.ro	RON	Leu	40	######	^(\\d{6})$	ro,hu,rom	798549	MD,HU,UA,CS,BG,RS	
RS	SRB	255	RB	Serbia	Serbie	Belgrade	88361	10159000	EU	.rs	RSD	Dinar	255	######	^(\\d{6})$	sr,hu,bs,rom	6290252	AL,HU,MK,RO,HR,BA,BG,ME	
RU	RUS	255	RS	Russia	Russie	Moscow	17100000	140702000	EU	.ru	RUB	Ruble	7	######	^(\\d{6})$	ru-RU	2017370	GE,CN,BY,UA,KZ,LV,PL,EE,LT,FI,MN,NO,AZ,KP	
RW	RWA	255	RW	Rwanda	Rwanda	Kigali	26338	10186000	AF	.rw	RWF	Franc	250			rw,en-RW,fr-RW,sw	49518	TZ,CD,BI,UG	
SA	SAU	255	SA	Saudi Arabia	Arabie Saoudite	Riyadh	1960582	28161000	AS	.sa	SAR	Rial	255	#####	^(\\d{5})$	ar-SA	102358	QA,OM,IQ,YE,JO,AE,KW	
SB	SLB	90	BP	Solomon Islands	Salomon (Iles)	Honiara	28450	581000	OC	.sb	SBD	Dollar	255			en-SB,tpi	2103350		
SC	SYC	255	SE	Seychelles	Seychelles	Victoria	455	82000	AF	.sc	SCR	Rupee	248			en-SC,fr-SC	241170		
SD	SDN	255	SU	Sudan	Soudan	Khartoum	2505810	40218000	AF	.sd	SDD	Dinar	249	#####	^(\\d{5})$	ar-SD,en,fia	366755	TD,ER,ET,LY,KE,CF,CD,UG,EG	
SE	SWE	255	SW	Sweden	Suède	Stockholm	449964	9045000	EU	.se	SEK	Krona	46	SE-### ##	^(?:SE)*(\\d{5})$	sv-SE,se,sma,fi-SE	2661886	NO,FI	
SG	SGP	255	SN	Singapore	Singapour	Singapur	693	4608000	AS	.sg	SGD	Dollar	65	######	^(\\d{6})$	cmn,en-SG,ms-SG,ta-SG,zh-SG	1880251		
SH	SHN	255	SH	Saint Helena	Sainte-Hélène	Jamestown	410	7460	AF	.sh	SHP	Pound	255	STHL 1ZZ	^(STHL1ZZ)$	en-SH	3370751		
SI	SVN	255	SI	Slovenia	Slovénie	Ljubljana	20273	2007000	EU	.si	EUR	Euro	255	SI- ####	^(?:SI)*(\\d{4})$	sl,sh	3190538	HU,IT,HR,AT	
SJ	SJM	255	SV	Svalbard and Jan Mayen	Svalbard et Jan Mayen	Longyearbyen	62049	2265	EU	.sj	NOK	Krone	47			no,ru	607072		
SK	SVK	255	LO	Slovakia	Slovaquie	Bratislava	48845	5455000	EU	.sk	SKK	Koruna	255	###  ##	^(\\d{5})$	sk,hu	3057568	PL,HU,CZ,UA,AT	
SL	SLE	255	SL	Sierra Leone	Sierra Leone	Freetown	71740	6286000	AF	.sl	SLL	Leone	232			en-SL,men,tem	2403846	LR,GN	
SM	SMR	255	SM	San Marino	Saint-Marin	San Marino	61	29000	EU	.sm	EUR	Euro	255	4789#	^(4789\\d)$	it-SM	3168068	IT	
SN	SEN	255	SG	Senegal	Sénégal	Dakar	196190	12853000	AF	.sn	XOF	Franc	221	#####	^(\\d{5})$	fr-SN,wo,fuc,mnk	2245662	GN,MR,GW,GM,ML	
SO	SOM	255	SO	Somalia	Somalie	Mogadishu	637657	9379000	AF	.so	SOS	Shilling	252	@@  #####	^([A-Z]{2}\\d{5})$	so-SO,ar-SO,it,en-SO	51537	ET,KE,DJ	
SR	SUR	255	NS	Suriname	Suriname	Paramaribo	163270	475000	SA	.sr	SRD	Dollar	255			nl-SR,en,srn,hns,jv	3382998	GY,BR,GF	
ST	STP	255	TP	Sao Tome and Principe	São Tomé e Príncipe	São Tomé	1001	205000	AF	.st	STD	Dobra	239			pt-ST	2410758		
SV	SLV	222	ES	El Salvador	Salvador	San Salvador	21040	7066000	NA	.sv	USD	Dollar	255	CP ####	^(?:CP)*(\\d{4})$	es-SV	3585968	GT,HN	
SY	SYR	255	SY	Syria	Syrie	Damascus	185180	19747000	AS	.sy	SYP	Pound	255			ar-SY,ku,hy,arc,fr,en	163843	IQ,JO,IL,TR,LB	
SZ	SWZ	255	WZ	Swaziland	Swaziland	Mbabane	17363	1128000	AF	.sz	SZL	Lilangeni	255	@###	^([A-Z]\\d{3})$	en-SZ,ss-SZ	934841	ZA,MZ	
TC	TCA	255	TK	Turks and Caicos Islands	Turks et Caïques (Iles)	Cockburn Town	430	20556	NA	.tc	USD	Dollar	1	TKCA 1ZZ	^(TKCA 1ZZ)$	en-TC	3576916		
TD	TCD	148	CD	Chad	Tchad	N'Djamena	1284000	10111000	AF	.td	XAF	Franc	235			fr-TD,ar-TD,sre	2434508	NE,LY,CF,SD,CM,NG	
TF	ATF	255	FS	French Southern Territories	French Southern Territories	Martin-de-Viviès	7829	0	AN	.tf	EUR	Euro  	0			fr	1546748		
TG	TGO	255	TO	Togo	Togo	Lomé	56785	5858000	AF	.tg	XOF	Franc	228			fr-TG,ee,hna,kbp,dag,ha	2363686	BJ,GH,BF	
TH	THA	255	TH	Thailand	Thaïlande	Bangkok	514000	65493000	AS	.th	THB	Baht	66	#####	^(\\d{5})$	th,en	1605651	LA,MM,KH,MY	
TJ	TJK	255	TI	Tajikistan	Tadjikistan	Dushanbe	143100	7211000	AS	.tj	TJS	Somoni	255	######	^(\\d{6})$	tg,ru	1220409	CN,AF,KG,UZ	
TK	TKL	255	TL	Tokelau	Tokelau		10	1405	OC	.tk	NZD	Dollar	255			tkl,en-TK	4031074		
TL	TLS	255	TT	East Timor	Timor-Leste	Dili	15007	1107000	OC	.tp	USD	Dollar	255			tet,pt-TL,id,en	1966436	ID	
TM	TKM	255	TX	Turkmenistan	Turkménistan	Ashgabat	488100	5179000	AS	.tm	TMM	Manat	255	######	^(\\d{6})$	tk,ru,uz	1218197	AF,IR,UZ,KZ	
TN	TUN	255	TS	Tunisia	Tunisie	Tunis	163610	10378000	AF	.tn	TND	Dinar	216	####	^(\\d{4})$	ar-TN,fr	2464461	DZ,LY	
TO	TON	255	TN	Tonga	Tonga (Iles)	Nuku'alofa	748	118000	OC	.to	TOP	Pa'anga	255			to,en-TO	4032283		
TR	TUR	255	TU	Turkey	Turquie	Ankara	780580	71892000	AS	.tr	TRY	Lira	90	#####	^(\\d{5})$	tr-TR,ku,diq,az,av	298795	SY,GE,IQ,IR,GR,AM,AZ,BG	
TT	TTO	255	TD	Trinidad and Tobago	Trinité-et-Tobago	Port of Spain	5128	1047000	NA	.tt	TTD	Dollar	1			en-TT,hns,fr,es,zh	3573591		
TV	TUV	255	TV	Tuvalu	Tuvalu (Iles)	Vaiaku	26	12000	OC	.tv	AUD	Dollar	255			tvl,en,sm,gil	2110297		
TW	TWN	158	TW	Taiwan	Taiwan	Taipei	35980	22894384	AS	.tw	TWD	Dollar	255	#####	^(\\d{5})$	zh-TW,zh,nan,hak	1668284		
TZ	TZA	255	TZ	Tanzania	Tanzanie	Dar es Salaam	945087	40213000	AF	.tz	TZS	Shilling	255			sw-TZ,en,ar	149590	MZ,KE,CD,RW,ZM,BI,UG,MW	
UA	UKR	255	UP	Ukraine	Ukraine	Kiev	603700	45994000	EU	.ua	UAH	Hryvnia	255	#####	^(\\d{5})$	uk,ru-UA,rom,pl,hu	690791	PL,MD,HU,SK,BY,RO,RU	
UG	UGA	255	UG	Uganda	Ouganda	Kampala	236040	31367000	AF	.ug	UGX	Shilling	255			en-UG,lg,sw,ar	226074	TZ,KE,SD,CD,RW	
UM	UMI	255		United States Minor Outlying Islands	United States Minor Outlying Islands		0	0	OC	.um	USD	Dollar 	0			en-UM	5854968		
US	USA	255	US	United States	Etats-Unis	Washington	9629091	303824000	NA	.us	USD	Dollar	1	#####-####	^(\\d{9})$	en-US,es-US,haw	6252001	CA,MX,CU	
UY	URY	255	UY	Uruguay	Uruguay	Montevideo	176220	3477000	SA	.uy	UYU	Peso	255	#####	^(\\d{5})$	es-UY	3439705	BR,AR	
UZ	UZB	255	UZ	Uzbekistan	Ouzbékistan	Tashkent	447400	28268000	AS	.uz	UZS	Som	255	######	^(\\d{6})$	uz,ru,tg	1512440	TM,AF,KG,TJ,KZ	
VA	VAT	255	VT	Vatican	Vatican	Vatican City	0	921	EU	.va	EUR	Euro	255			la,it,fr	3164670	IT	
VC	VCT	255	VC	Saint Vincent and the Grenadines	Saint-Vincent et les Grenadines	Kingstown	389	117534	NA	.vc	XCD	Dollar	1			en-VC,fr	3577815		
VE	VEN	255	VE	Venezuela	Venezuela	Caracas	912050	26414000	SA	.ve	VEB	Bolivar	58	####	^(\\d{4})$	es-VE	3625428	GY,BR,CO	
VG	VGB	92	VI	British Virgin Islands	Vierges britanniques (Iles)	Road Town	153	21730	NA	.vg	USD	Dollar	1			en-VG	3577718		
VI	VIR	255	VQ	U.S. Virgin Islands	U.S. Virgin Islands	Charlotte Amalie	352	108708	NA	.vi	USD	Dollar	1			en-VI	4796775		
VN	VNM	255	VM	Vietnam	Viêt Nam	Hanoi	329560	86116000	AS	.vn	VND	Dong	84	######	^(\\d{6})$	vi,en,fr,zh,km	1562822	CN,LA,KH	
VU	VUT	255	NH	Vanuatu	Vanuatu	Port Vila	12200	215000	OC	.vu	VUV	Vatu	255			bi,en-VU,fr-VU	2134431		
WF	WLF	255	WF	Wallis and Futuna	Wallis et Futuna	Matâ'Utu	274	16025	OC	.wf	XPF	Franc	255			wls,fud,fr-WF	4034749		
WS	WSM	255	WS	Samoa	Samoa Occidentales	Apia	2944	217000	OC	.ws	WST	Tala	255			sm,en-WS	4034894		
YE	YEM	255	YM	Yemen	Yémen	San?a?	527970	23013000	AS	.ye	YER	Rial	255			ar-YE	69543	SA,OM	
YT	MYT	175	MF	Mayotte	Mayotte	Mamoudzou	374	159042	AF	.yt	EUR	Euro	255	#####	^(\\d{5})$	fr-YT	1024031		
ZA	ZAF	255	SF	South Africa	Afrique du Sud	Pretoria	1219912	43786000	AF	.za	ZAR	Rand	27	####	^(\\d{4})$	zu,xh,af,nso,en-ZA,tn,st,ts	953987	ZW,SZ,MZ,BW,NA,LS	
ZM	ZMB	255	ZA	Zambia	Zambie	Lusaka	752614	11669000	AF	.zm	ZMK	Kwacha	255	#####	^(\\d{5})$	en-ZM,bem,loz,lun,lue,ny,toi	895949	ZW,TZ,MZ,CD,NA,MW,AO	
ZW	ZWE	255	ZI	Zimbabwe	Zimbabwe	Harare	390580	12382000	AF	.zw	ZWD	Dollar	255			en-ZW,sn,nr,nd	878675	ZA,MZ,BW,ZM	
CS	SCG	255	YI	Serbia and Montenegro	Serbie et Montenegro	Belgrade	102350	10829175	EU	.cs	RSD	Dinar	255	#####	^(\\d{5})$	cu,hu,sq,sr	863038	AL,HU,MK,RO,HR,BA,BG	
